{
  "staging": {
    "awscloudformation": {
      "AuthRoleName": "amplify-innoendowebsite-staging-45732-authRole",
      "UnauthRoleArn": "arn:aws:iam::243791119221:role/amplify-innoendowebsite-staging-45732-unauthRole",
      "AuthRoleArn": "arn:aws:iam::243791119221:role/amplify-innoendowebsite-staging-45732-authRole",
      "Region": "ap-southeast-1",
      "DeploymentBucketName": "amplify-innoendowebsite-staging-45732-deployment",
      "UnauthRoleName": "amplify-innoendowebsite-staging-45732-unauthRole",
      "StackName": "amplify-innoendowebsite-staging-45732",
      "StackId": "arn:aws:cloudformation:ap-southeast-1:243791119221:stack/amplify-innoendowebsite-staging-45732/ccd16ad0-932a-11ee-a658-022062c41956",
      "AmplifyAppId": "d3dx84ru31xe51",
      "APIGatewayAuthURL": "https://s3.amazonaws.com/amplify-innoendowebsite-staging-45732-deployment/amplify-cfn-templates/api/APIGatewayAuthStack.json"
    },
    "categories": {
      "auth": {
        "innoendowebsite": {}
      },
      "function": {
        "emailLambda": {
          "deploymentBucketName": "amplify-innoendowebsite-staging-45732-deployment",
          "s3Key": "amplify-builds/emailLambda-3262684f72302f364733-build.zip"
        }
      },
      "api": {
        "contactUsEmail": {}
      }
    }
  }
}