<svg width="24" height="24" viewBox="0 0 24 24" fill="none" xmlns="http://www.w3.org/2000/svg">
<g id="Mode Swtich Button">
<path id="Vector" d="M9.6 6C9.59976 7.66877 10.0966 9.29979 11.0271 10.6851C11.9576 12.0703 13.2796 13.147 14.8245 13.7779C16.3695 14.4087 18.0673 14.5651 19.7015 14.2271C21.3356 13.8891 22.8321 13.072 24 11.88V12C24 18.6276 18.6276 24 12 24C5.3724 24 0 18.6276 0 12C0 5.3724 5.3724 0 12 0H12.12C11.3208 0.78135 10.6862 1.71476 10.2534 2.74522C9.82058 3.77568 9.59843 4.88234 9.6 6ZM2.4 12C2.39913 14.142 3.11463 16.2227 4.43267 17.9112C5.75071 19.5996 7.59556 20.7987 9.67369 21.3178C11.7518 21.8368 13.9439 21.646 15.901 20.7756C17.8582 19.9052 19.468 18.4052 20.4744 16.5144C18.6833 16.9364 16.8141 16.8937 15.0442 16.3905C13.2742 15.8872 11.6622 14.9401 10.3611 13.6389C9.0599 12.3378 8.11278 10.7258 7.60954 8.95581C7.1063 7.18586 7.06364 5.31667 7.4856 3.5256C5.9491 4.34417 4.66414 5.5652 3.76831 7.05797C2.87247 8.55075 2.39949 10.2591 2.4 12Z" fill="black"/>
</g>
</svg>
